0 -7594
1 7087
2 -7081
3 7419
4 -8135
5 -7596
6 7088
7 -7081
8 7417
9 -8129
10 -7596
11 7090
12 -7081
13 7415
14 -8129
15 -7598
16 7092
17 -7079
18 7414
19 -8130
20 -7599
21 7091
22 -7081
23 7413
24 -8131
25 -7603
26 7091
27 -7082
28 7411
29 -8129
30 -7601
31 7092
32 -7079
33 7411
34 -8126
35 -7602
36 7095
37 -7078
38 7408
39 -8124
40 -7601
41 7091
42 -7081
43 7411
44 -8121
45 -7603
46 7093
47 -7079
48 7409
49 -8123
50 -7603
51 7091
52 -7077
53 7408
54 -8120
55 -7608
56 7098
57 -7079
58 7408
59 -8119
60 -7606
61 7095
62 -7078
63 7407
64 -8118
65 -7608
66 7096
67 -7076
68 7408
69 -8121
70 -7608
71 7098
72 -7078
73 7408
74 -8115
75 -7609
76 7094
77 -7076
78 7404
79 -8116
80 -7611
81 7099
82 -7080
83 7404
84 -8116
85 -7609
86 7096
87 -7072
88 7402
89 -8112
90 -7613
91 7096
92 -7075
93 7402
94 -8111
95 -7617
96 7099
97 -7077
98 7400
99 -8110
100 -7614
101 7098
102 -7075
103 7399
104 -8108
105 -7618
106 7097
107 -7075
108 7398
109 -8111
110 -7612
111 7099
112 -7076
113 7396
114 -8106
115 -7617
116 7099
117 -7077
118 7400
119 -8107
120 -7617
121 7101
122 -7076
123 7398
124 -8105
125 -7619
126 7103
127 -7073
128 7395
129 -8103
130 -7623
131 7097
132 -7076
133 7394
134 -8103
135 -7622
136 7100
137 -7076
138 7390
139 -8099
140 -7624
141 7100
142 -7073
143 7395
144 -8102
145 -7622
146 7104
147 -7075
148 7391
149 -8100
150 -7625
151 7100
152 -7072
153 7392
154 -8100
155 -7627
156 7102
157 -7074
158 7392
159 -8094
160 -7626
161 7104
162 -7072
163 7390
164 -8095
165 -7627
166 7101
167 -7071
168 7388
169 -8092
170 -7628
171 7103
172 -7071
173 7388
174 -8094
175 -7630
176 7103
177 -7073
178 7386
179 -8091
180 -7629
181 7105
182 -7069
183 7386
184 -8090
185 -7633
186 7105
187 -7072
188 7386
189 -8089
190 -7633
191 7106
192 -7068
193 7384
194 -8091
195 -7634
196 7106
197 -7071
198 7381
199 -8089
200 -7632
201 7106
202 -7069
203 7380
204 -8088
205 -7636
206 7103
207 -7070
208 7385
209 -8086
210 -7635
211 7107
212 -7071
213 7380
214 -8081
215 -7641
216 7106
217 -7070
218 7382
219 -8080
220 -7640
221 7109
222 -7071
223 7379
224 -8083
225 -7640
226 7108
227 -7071
228 7378
229 -8081
230 -7643
231 7113
232 -7070
233 7376
234 -8082
235 -7643
236 7112
237 -7069
238 7378
239 -8075
240 -7645
241 7109
242 -7068
243 7376
244 -8078
245 -7643
246 7110
247 -7068
248 7373
249 -8077
250 -7643
251 7110
252 -7068
253 7375
254 -8079
255 -7649
256 7114
257 -7067
258 7376
259 -8073
260 -7648
261 7112
262 -7068
263 7375
264 -8071
265 -7651
266 7114
267 -7072
268 7372
269 -8071
270 -7649
271 7115
272 -7068
273 7373
274 -8073
275 -7650
276 7114
277 -7066
278 7370
279 -8070
280 -7653
281 7114
282 -7070
283 7370
284 -8068
285 -7652
286 7115
287 -7066
288 7369
289 -8068
290 -7651
291 7113
292 -7067
293 7365
294 -8063
295 -7657
296 7119
297 -7069
298 7368
299 -8064
300 -7654
301 7115
302 -7065
303 7368
304 -8063
305 -7657
306 7117
307 -7065
308 7367
309 -8061
310 -7652
311 7116
312 -7066
313 7363
314 -8061
315 -7661
316 7118
317 -7064
318 7364
319 -8059
320 -7659
321 7117
322 -7065
323 7367
324 -8060
325 -7661
326 7120
327 -7066
328 7361
329 -8057
330 -7661
331 7119
332 -7068
333 7362
334 -8056
335 -7663
336 7121
337 -7063
338 7359
339 -8059
340 -7664
341 7120
342 -7062
343 7361
344 -8055
345 -7666
346 7119
347 -7063
348 7356
349 -8052
350 -7663
351 7119
352 -7066
353 7354
354 -8052
355 -7664
356 7121
357 -7065
358 7355
359 -8054
360 -7666
361 7121
362 -7065
363 7356
364 -8048
365 -7671
366 7122
367 -7063
368 7354
369 -8047
370 -7669
371 7125
372 -7062
373 7353
374 -8049
375 -7670
376 7123
377 -7065
378 7356
379 -8049
380 -7669
381 7120
382 -7064
383 7354
384 -8044
385 -7671
386 7123
387 -7063
388 7356
389 -8046
390 -7673
391 7127
392 -7063
393 7350
394 -8046
395 -7674
396 7124
397 -7063
398 7352
399 -8041
400 -7671
401 7128
402 -7061
403 7349
404 -8041
405 -7680
406 7127
407 -7063
408 7350
409 -8040
410 -7674
411 7128
412 -7060
413 7349
414 -8039
415 -7680
416 7127
417 -7062
418 7350
419 -8037
420 -7679
421 7129
422 -7063
423 7349
424 -8039
425 -7681
426 7129
427 -7061
428 7343
429 -8036
430 -7683
431 7131
432 -7061
433 7346
434 -8034
435 -7680
436 7129
437 -7059
438 7344
439 -8035
440 -7679
441 7132
442 -7063
443 7343
444 -8036
445 -7682
446 7130
447 -7059
448 7340
449 -8034
450 -7686
451 7131
452 -7060
453 7340
454 -8029
455 -7687
456 7133
457 -7063
458 7342
459 -8032
460 -7684
461 7131
462 -7057
463 7342
464 -8028
465 -7688
466 7130
467 -7062
468 7340
469 -8028
470 -7690
471 7135
472 -7059
473 7338
474 -8027
475 -7693
476 7136
477 -7055
478 7337
479 -8023
480 -7691
481 7138
482 -7059
483 7337
484 -8023
485 -7693
486 7134
487 -7061
488 7338
489 -8022
490 -7694
491 7133
492 -7059
493 7335
494 -8023
495 -7693
496 7137
497 -7060
498 7337
499 -8019
500 -7693
501 7138
502 -7061
503 7334
504 -8017
505 -7697
506 7139
507 -7058
508 7331
509 -8017
510 -7700
511 7142
512 -7057
513 7333
514 -8017
515 -7700
516 7139
517 -7060
518 7330
519 -8014
520 -7697
521 7137
522 -7058
523 7329
524 -8013
525 -7701
526 7140
527 -7058
528 7331
529 -8011
530 -7702
531 7141
532 -7058
533 7329
534 -8012
535 -7702
536 7138
537 -7055
538 7328
539 -8010
540 -7705
541 7140
542 -7054
543 7326
544 -8010
545 -7707
546 7142
547 -7059
548 7325
549 -8008
550 -7706
551 7142
552 -7056
553 7323
554 -8010
555 -7707
556 7145
557 -7059
558 7324
559 -8004
560 -7710
561 7144
562 -7058
563 7325
564 -8004
565 -7712
566 7142
567 -7056
568 7327
569 -8002
570 -7710
571 7144
572 -7058
573 7322
574 -8001
575 -7710
576 7146
577 -7056
578 7323
579 -8005
580 -7715
581 7148
582 -7057
583 7322
584 -8001
585 -7716
586 7147
587 -7056
588 7320
589 -7998
590 -7716
591 7147
592 -7056
593 7320
594 -7997
595 -7715
596 7147
597 -7056
598 7318
599 -7999
600 -7715
601 7150
602 -7057
603 7317
604 -7994
605 -7721
606 7149
607 -7057
608 7316
609 -7990
610 -7715
611 7149
612 -7055
613 7317
614 -7993
615 -7721
616 7149
617 -7055
618 7318
619 -7994
620 -7722
621 7151
622 -7057
623 7316
624 -7991
625 -7724
626 7151
627 -7053
628 7311
629 -7986
630 -7722
631 7153
632 -7057
633 7312
634 -7991
635 -7723
636 7156
637 -7056
638 7309
639 -7985
640 -7725
641 7151
642 -7054
643 7311
644 -7989
645 -7725
646 7150
647 -7056
648 7312
649 -7987
650 -7727
651 7155
652 -7057
653 7317
654 -7980
655 -7730
656 7154
657 -7053
658 7309
659 -7983
660 -7728
661 7155
662 -7055
663 7308
664 -7982
665 -7732
666 7155
667 -7056
668 7308
669 -7979
670 -7731
671 7154
672 -7053
673 7304
674 -7981
675 -7732
676 7155
677 -7055
678 7308
679 -7980
680 -7733
681 7157
682 -7054
683 7305
684 -7976
685 -7734
686 7157
687 -7054
688 7303
689 -7979
690 -7735
691 7156
692 -7054
693 7306
694 -7978
695 -7736
696 7160
697 -7057
698 7303
699 -7972
700 -7734
701 7159
702 -7054
703 7302
704 -7975
705 -7740
706 7163
707 -7053
708 7301
709 -7972
710 -7740
711 7160
712 -7049
713 7300
714 -7968
715 -7740
716 7161
717 -7051
718 7300
719 -7967
720 -7742
721 7157
722 -7050
723 7301
724 -7969
725 -7740
726 7162
727 -7054
728 7296
729 -7968
730 -7744
731 7161
732 -7051
733 7298
734 -7964
735 -7744
736 7164
737 -7051
738 7297
739 -7961
740 -7748
741 7164
742 -7052
743 7297
744 -7964
745 -7747
746 7164
747 -7052
748 7291
749 -7961
750 -7751
751 7167
752 -7055
753 7294
754 -7963
755 -7751
756 7163
757 -7055
758 7294
759 -7966
760 -7750
761 7163
762 -7051
763 7295
764 -7960
765 -7754
766 7166
767 -7053
768 7293
769 -7960
770 -7755
771 7166
772 -7054
773 7291
774 -7956
775 -7755
776 7168
777 -7052
778 7292
779 -7956
780 -7753
781 7168
782 -7050
783 7287
784 -7955
785 -7754
786 7165
787 -7053
788 7288
789 -7953
790 -7757
791 7168
792 -7052
793 7291
794 -7952
795 -7755
796 7170
797 -7053
798 7288
799 -7952
800 -7758
801 7171
802 -7050
803 7289
804 -7949
805 -7761
806 7170
807 -7053
808 7286
809 -7952
810 -7762
811 7172
812 -7051
813 7284
814 -7949
815 -7763
816 7165
817 -7048
818 7287
819 -7947
820 -7762
821 7169
822 -7053
823 7281
824 -7950
825 -7764
826 7173
827 -7052
828 7281
829 -7945
830 -7766
831 7171
832 -7051
833 7282
834 -7943
835 -7766
836 7175
837 -7052
838 7282
839 -7944
840 -7767
841 7174
842 -7048
843 7285
844 -7942
845 -7769
846 7176
847 -7050
848 7278
849 -7942
850 -7770
851 7178
852 -7049
853 7280
854 -7941
855 -7769
856 7174
857 -7052
858 7277
859 -7940
860 -7772
861 7176
862 -7051
863 7275
864 -7940
865 -7773
866 7179
867 -7051
868 7277
869 -7938
870 -7776
871 7179
872 -7052
873 7278
874 -7935
875 -7775
876 7176
877 -7047
878 7278
879 -7934
880 -7775
881 7179
882 -7050
883 7274
884 -7933
885 -7773
886 7179
887 -7049
888 7276
889 -7935
890 -7776
891 7178
892 -7045
893 7271
894 -7932
895 -7775
896 7182
897 -7051
898 7275
899 -7933
900 -7779
901 7182
902 -7049
903 7272
904 -7927
905 -7775
906 7184
907 -7048
908 7271
909 -7931
910 -7776
911 7184
912 -7051
913 7268
914 -7927
915 -7782
916 7184
917 -7047
918 7269
919 -7926
920 -7783
921 7185
922 -7048
923 7276
924 -7928
925 -7785
926 7184
927 -7050
928 7267
929 -7925
930 -7785
931 7186
932 -7050
933 7270
934 -7923
935 -7785
936 7188
937 -7049
938 7265
939 -7919
940 -7790
941 7189
942 -7050
943 7264
944 -7917
945 -7791
946 7188
947 -7050
948 7266
949 -7918
950 -7789
951 7189
952 -7046
953 7265
954 -7920
955 -7793
956 7190
957 -7049
958 7265
959 -7918
960 -7793
961 7188
962 -7048
963 7264
964 -7914
965 -7792
966 7187
967 -7050
968 7264
969 -7913
970 -7792
971 7191
972 -7051
973 7260
974 -7915
975 -7797
976 7193
977 -7047
978 7260
979 -7912
980 -7799
981 7194
982 -7048
983 7262
984 -7912
985 -7795
986 7193
987 -7047
988 7261
989 -7911
990 -7796
991 7193
992 -7048
993 7262
994 -7911
995 -7799
996 7192
997 -7047
998 7258
999 -7910
1000 -7801
1001 7195
1002 -7046
1003 7257
1004 -7904
1005 -7802
1006 7196
1007 -7047
1008 7257
1009 -7907
1010 -7801
1011 7196
1012 -7046
1013 7255
1014 -7901
1015 -7808
1016 7202
1017 -7048
1018 7255
1019 -7904
1020 -7803
1021 7197
1022 -7051
1023 7258
