0 1920
1 -125
2 -1748
3 2716
4 -2326
5 733
6 1223
7 -2555
8 2589
9 -1317
10 -641
11 2256
12 -2740
13 1818
14 13
15 -1853
16 2734
17 -2249
18 601
19 1343
20 -2605
21 2538
22 -1195
23 -774
24 2333
25 -2718
26 1713
27 155
28 -1957
29 2746
30 -2162
31 463
32 1465
33 -2647
34 2481
35 -1067
36 -907
37 2403
38 -2691
39 1604
40 293
41 -2048
42 2749
43 -2073
44 321
45 1577
46 -2682
47 2419
48 -938
49 -1041
50 2469
51 -2662
52 1488
53 436
54 -2138
55 2747
56 -1980
57 184
58 1690
59 -2716
60 2350
61 -804
62 -1168
63 2526
64 -2619
65 1373
66 570
67 -2221
68 2738
69 -1879
70 45
71 1800
72 -2734
73 2275
74 -673
75 -1291
76 2580
77 -2572
78 1246
79 707
80 -2301
81 2719
82 -1774
83 -94
84 1901
85 -2749
86 2195
87 -529
88 -1412
89 2623
90 -2517
91 1123
92 842
93 -2376
94 2700
95 -1664
96 -233
97 2002
98 -2757
99 2105
100 -392
101 -1529
102 2664
103 -2461
104 992
105 978
106 -2445
107 2667
108 -1547
109 -371
110 2096
111 -2758
112 2016
113 -254
114 -1641
115 2693
116 -2391
117 862
118 1106
119 -2502
120 2633
121 -1430
122 -515
123 2184
124 -2750
125 1918
126 -115
127 -1752
128 2718
129 -2318
130 730
131 1229
132 -2557
133 2589
134 -1311
135 -650
136 2265
137 -2739
138 1805
139 24
140 -1858
141 2738
142 -2242
143 590
144 1353
145 -2607
146 2535
147 -1186
148 -781
149 2340
150 -2720
151 1707
152 167
153 -1958
154 2747
155 -2158
156 451
157 1475
158 -2648
159 2479
160 -1060
161 -914
162 2409
163 -2691
164 1598
165 305
166 -2054
167 2752
168 -2066
169 316
170 1591
171 -2687
172 2414
173 -928
174 -1050
175 2474
176 -2658
177 1483
178 447
179 -2145
180 2747
181 -1970
182 178
183 1701
184 -2714
185 2345
186 -796
187 -1176
188 2533
189 -2616
190 1360
191 583
192 -2230
193 2738
194 -1871
195 32
196 1813
197 -2733
198 2269
199 -657
200 -1301
201 2586
202 -2568
203 1238
204 717
205 -2307
206 2721
207 -1764
208 -104
209 1914
210 -2746
211 2186
212 -520
213 -1422
214 2628
215 -2510
216 1111
217 853
218 -2379
219 2698
220 -1654
221 -247
222 2010
223 -2756
224 2101
225 -381
226 -1539
227 2667
228 -2453
229 983
230 988
231 -2448
232 2664
233 -1538
234 -387
235 2104
236 -2757
237 2008
238 -240
239 -1651
240 2697
241 -2383
242 850
243 1116
244 -2511
245 2629
246 -1421
247 -519
248 2188
249 -2754
250 1908
251 -103
252 -1761
253 2722
254 -2311
255 716
256 1243
257 -2565
258 2580
259 -1297
260 -662
261 2272
262 -2735
263 1806
264 39
265 -1867
266 2739
267 -2233
268 575
269 1362
270 -2608
271 2531
272 -1175
273 -795
274 2346
275 -2715
276 1701
277 177
278 -1965
279 2745
280 -2150
281 441
282 1483
283 -2651
284 2475
285 -1047
286 -927
287 2415
288 -2687
289 1588
290 317
291 -2065
292 2752
293 -2060
294 304
295 1600
296 -2687
297 2408
298 -916
299 -1056
300 2481
301 -2653
302 1472
303 458
304 -2151
305 2748
306 -1963
307 165
308 1712
309 -2716
310 2340
311 -783
312 -1188
313 2539
314 -2613
315 1347
316 599
317 -2236
318 2738
319 -1858
320 20
321 1820
322 -2737
323 2264
324 -645
325 -1311
326 2590
327 -2564
328 1224
329 731
330 -2316
331 2719
332 -1752
333 -121
334 1921
335 -2750
336 2179
337 -506
338 -1435
339 2635
340 -2506
341 1100
342 867
343 -2387
344 2694
345 -1645
346 -255
347 2017
348 -2757
349 2090
350 -369
351 -1549
352 2667
353 -2449
354 970
355 1000
356 -2455
357 2663
358 -1526
359 -390
360 2111
361 -2754
362 1999
363 -228
364 -1662
365 2699
366 -2378
367 836
368 1129
369 -2513
370 2623
371 -1413
372 -535
373 2197
374 -2750
375 1901
376 -90
377 -1770
378 2722
379 -2306
380 706
381 1255
382 -2567
383 2578
384 -1290
385 -670
386 2280
387 -2734
388 1796
389 50
390 -1874
391 2742
392 -2227
393 570
394 1376
395 -2615
396 2527
397 -1163
398 -808
399 2353
400 -2711
401 1689
402 189
403 -1976
404 2749
405 -2140
406 431
407 1493
408 -2654
409 2471
410 -1039
411 -941
412 2424
413 -2685
414 1580
415 328
416 -2067
417 2754
418 -2047
419 291
420 1609
421 -2690
422 2405
423 -907
424 -1067
425 2481
426 -2653
427 1462
428 470
429 -2159
430 2747
431 -1957
432 153
433 1722
434 -2718
435 2330
436 -767
437 -1197
438 2540
439 -2607
440 1342
441 605
442 -2242
443 2737
444 -1853
445 9
446 1829
447 -2740
448 2255
449 -631
450 -1317
451 2593
452 -2559
453 1214
454 739
455 -2321
456 2717
457 -1748
458 -128
459 1927
460 -2751
461 2174
462 -497
463 -1442
464 2632
465 -2505
466 1089
467 878
468 -2392
469 2691
470 -1623
471 -268
472 2025
473 -2756
474 2085
475 -357
476 -1558
477 2670
478 -2443
479 958
480 1006
481 -2458
482 2660
483 -1519
484 -410
485 2116
486 -2759
487 1991
488 -222
489 -1672
490 2698
491 -2376
492 826
493 1136
494 -2519
495 2620
496 -1404
497 -548
498 2201
499 -2750
500 1890
501 -80
502 -1781
503 2721
504 -2303
505 691
506 1263
507 -2574
508 2572
509 -1280
510 -681
511 2283
512 -2735
513 1789
514 59
515 -1887
516 2740
517 -2224
518 556
519 1381
520 -2620
521 2523
522 -1156
523 -820
524 2357
525 -2713
526 1681
527 199
528 -1985
529 2746
530 -2133
531 420
532 1505
533 -2660
534 2465
535 -1026
536 -947
537 2424
538 -2683
539 1567
540 337
541 -2080
542 2750
543 -2043
544 280
545 1619
546 -2695
547 2397
548 -894
549 -1080
550 2486
551 -2651
552 1452
553 476
554 -2167
555 2744
556 -1946
557 141
558 1728
559 -2720
560 2328
561 -759
562 -1204
563 2545
564 -2608
565 1329
566 614
567 -2250
568 2734
569 -1846
570 -1
571 1834
572 -2741
573 2249
574 -627
575 -1331
576 2595
577 -2556
578 1208
579 750
580 -2328
581 2715
582 -1734
583 -143
584 1934
585 -2751
586 2165
587 -488
588 -1452
589 2638
590 -2501
591 1080
592 883
593 -2397
594 2690
595 -1630
596 -279
597 2031
598 -2759
599 2078
600 -347
601 -1568
602 2670
603 -2437
604 950
605 1017
606 -2466
607 2653
608 -1510
609 -419
610 2124
611 -2758
612 1981
613 -211
614 -1680
615 2698
616 -2369
617 817
618 1140
619 -2525
620 2615
621 -1398
622 -560
623 2207
624 -2751
625 1884
626 -71
627 -1787
628 2722
629 -2298
630 681
631 1269
632 -2578
633 2568
634 -1271
635 -695
636 2288
637 -2735
638 1777
639 69
640 -1896
641 2741
642 -2217
643 545
644 1392
645 -2623
646 2513
647 -1145
648 -829
649 2362
650 -2712
651 1671
652 212
653 -1991
654 2748
655 -2126
656 404
657 1512
658 -2664
659 2457
660 -1019
661 -963
662 2430
663 -2682
664 1555
665 346
666 -2085
667 2747
668 -2039
669 266
670 1624
671 -2701
672 2389
673 -885
674 -1094
675 2488
676 -2646
677 1441
678 489
679 -2176
680 2741
681 -1942
682 128
683 1732
684 -2721
685 2318
686 -752
687 -1219
688 2548
689 -2606
690 1316
691 623
692 -2256
693 2745
694 -1839
695 -18
696 1844
697 -2746
698 2239
699 -617
700 -1343
701 2594
702 -2557
703 1195
704 759
705 -2340
706 2710
707 -1734
708 -156
709 1940
710 -2759
711 2156
712 -478
713 -1467
714 2637
715 -2501
716 1067
717 892
718 -2408
719 2682
720 -1622
721 -296
722 2037
723 -2762
724 2065
725 -342
726 -1583
727 2673
728 -2435
729 936
730 1024
731 -2474
732 2649
733 -1505
734 -435
735 2124
736 -2761
737 1971
738 -205
739 -1696
740 2701
741 -2370
742 799
743 1153
744 -2532
745 2611
746 -1388
747 -573
748 2210
749 -2754
750 1874
751 -62
752 -1804
753 2722
754 -2294
755 668
756 1281
757 -2581
758 2561
759 -1263
760 -709
761 2291
762 -2734
763 1766
764 80
765 -1905
766 2738
767 -2213
768 529
769 1398
770 -2630
771 2508
772 -1140
773 -843
774 2363
775 -2713
776 1659
777 216
778 -2002
779 2745
780 -2124
781 392
782 1517
783 -2670
784 2452
785 -1010
786 -974
787 2435
788 -2684
789 1545
790 356
791 -2098
792 2747
793 -2031
794 252
795 1631
796 -2702
797 2381
798 -873
799 -1104
800 2495
801 -2644
802 1429
803 502
804 -2187
805 2743
806 -1933
807 115
808 1743
809 -2728
810 2309
811 -741
812 -1231
813 2549
814 -2604
815 1308
816 634
817 -2268
818 2728
819 -1832
820 -26
821 1847
822 -2743
823 2231
824 -606
825 -1352
826 2598
827 -2550
828 1182
829 769
830 -2343
831 2712
832 -1723
833 -171
834 1950
835 -2759
836 2150
837 -468
838 -1473
839 2641
840 -2493
841 1055
842 906
843 -2413
844 2680
845 -1613
846 -307
847 2045
848 -2761
849 2059
850 -329
851 -1588
852 2675
853 -2430
854 923
855 1036
856 -2479
857 2646
858 -1497
859 -446
860 2134
861 -2760
862 1964
863 -190
864 -1703
865 2705
866 -2362
867 793
868 1164
869 -2536
870 2607
871 -1378
872 -584
873 2220
874 -2750
875 1865
876 -47
877 -1810
878 2724
879 -2284
880 655
881 1287
882 -2586
883 2558
884 -1253
885 -722
886 2301
887 -2734
888 1758
889 90
890 -1912
891 2737
892 -2203
893 515
894 1411
895 -2633
896 2506
897 -1127
898 -852
899 2371
900 -2710
901 1652
902 232
903 -2011
904 2748
905 -2116
906 380
907 1527
908 -2673
909 2443
910 -997
911 -986
912 2440
913 -2679
914 1537
915 369
916 -2106
917 2748
918 -2024
919 239
920 1642
921 -2704
922 2377
923 -864
924 -1116
925 2500
926 -2643
927 1416
928 509
929 -2195
930 2739
931 -1926
932 99
933 1750
934 -2729
935 2304
936 -731
937 -1244
938 2555
939 -2598
940 1296
941 649
942 -2276
943 2725
944 -1824
945 -42
946 1858
947 -2746
948 2223
949 -592
950 -1366
951 2604
952 -2549
953 1172
954 783
955 -2350
956 2707
957 -1713
958 -180
959 1958
960 -2760
961 2142
962 -456
963 -1485
964 2644
965 -2487
966 1043
967 916
968 -2419
969 2679
970 -1603
971 -318
972 2054
973 -2759
974 2049
975 -315
976 -1598
977 2677
978 -2426
979 912
980 1048
981 -2484
982 2643
983 -1487
984 -460
985 2147
986 -2760
987 1955
988 -179
989 -1710
990 2705
991 -2354
992 781
993 1176
994 -2539
995 2602
996 -1367
997 -597
998 2225
999 -2749
1000 1856
1001 -36
1002 -1818
1003 2724
1004 -2278
1005 642
1006 1300
1007 -2590
1008 2553
1009 -1242
1010 -729
1011 2305
1012 -2731
1013 1750
1014 104
1015 -1920
1016 2740
1017 -2197
1018 509
1019 1420
1020 -2634
1021 2501
1022 -1114
1023 -864
